{
	"symbolmapping":{
		"-" : "blank",
		"1" : "s_P1",
		"2" : "s_P1",
		"3" : "s_P1",
		"4" : "s_P1",	
		"5" : "s_Crown",
		"6" : "s_Crown",
		"7" : "s_Ring",
		"8" : "s_Ring",
		"9" : "s_Heart",
		"10" : "s_Heart",
		"11" : "s_Leopard",
		"12" : "s_Leopard",
		"13" : "s_Owl",
		"14" : "s_Owl",
		"15" : "s_Ermine",
		"16" : "s_Ermine",
		"17" : "s_A",
		"18" : "s_A",
		"19" : "s_K",
		"20" : "s_K",
		"21" : "s_Q",
		"22" : "s_Q",
		"23" : "s_J",
		"24" : "s_J",
		"25" : "s_10",		
		"26" : "s_10",
		"27" : "s_Bear",
		"28" : "s_Wild"
	},
	"secondarypanel": {
		"hidden_properties":{ "alpha":0},
		"shown_properties":{ "alpha":1},
		"animation_time":500,
		"easing":"EaseX.cubicInOut"
	}
}