{
	"configs":["reels_graphics_icywilds.viewbuilder_json"],
	"boundsWidth":1324,
	"boundsHeight":729,

	"defaultReelConfig":{
		"cellsNum":3,
		"cellWidth":256,
		"cellHeight":230,
		"cellSpacing":0,
		"stopDelay": 340,
		"leftMargin": 0,
		"direction":1,
		"defaultSpeed":16,
		"startingFunction":["0:0","-3:100","0:100","10:100","16:100"],
		"stoppingFunction":["16:0","10:100","0:100", "-5:100", "0:50"],
		"extendedSpinSpeed":32,
		"extendedSpinDuration":1200
	},

	"reels": [
		{
			"cellsNum":3,
			"cellWidth":256,
			"cellHeight":242,
			"cellSpacing":0,
			"stopDelay": 340,
			"leftMargin": 9,
			"direction":1,
			"defaultSpeed":16,
			"startingFunction":["0:0","-3:100","0:100","10:100","16:100"],
			"stoppingFunction":["16:0","10:100","0:100", "-5:100", "0:50"],
			"extendedSpinSpeed":32,
			"extendedSpinDuration":1200
		},
		{
			"cellsNum":3,
			"cellWidth":256,
			"cellHeight":242,
			"cellSpacing":0,
			"stopDelay": 340,
			"leftMargin": 9,
			"direction":1,
			"defaultSpeed":16,
			"startingFunction":["0:0","-3:100","0:100","10:100","16:100"],
			"stoppingFunction":["16:0","10:100","0:100", "-5:100", "0:50"],
			"extendedSpinSpeed":32,
			"extendedSpinDuration":1200
		},
		{
			"cellsNum":3,
			"cellWidth":256,
			"cellHeight":242,
			"cellSpacing":0,
			"stopDelay": 340,
			"leftMargin": 9,
			"direction":1,
			"defaultSpeed":16,
			"startingFunction":["0:0","-3:100","0:100","10:100","16:100"],
			"stoppingFunction":["16:0","10:100","0:100", "-5:100", "0:50"],
			"extendedSpinSpeed":32,
			"extendedSpinDuration":1200
		},
		{
			"cellsNum":3,
			"cellWidth":256,
			"cellHeight":242,
			"cellSpacing":0,
			"stopDelay": 340,
			"leftMargin": 9,
			"direction":1,
			"defaultSpeed":16,
			"startingFunction":["0:0","-3:100","0:100","10:100","16:100"],
			"stoppingFunction":["16:0","10:100","0:100", "-5:100", "0:50"],
			"extendedSpinSpeed":32,
			"extendedSpinDuration":1200
		},
{
			"cellsNum":3,
			"cellWidth":256,
			"cellHeight":242,
			"cellSpacing":0,
			"stopDelay": 340,
			"leftMargin": 9,
			"direction":1,
			"defaultSpeed":16,
			"startingFunction":["0:0","-3:100","0:100","10:100","16:100"],
			"stoppingFunction":["16:0","10:100","0:100", "-5:100", "0:50"],
			"extendedSpinSpeed":32,
			"extendedSpinDuration":1200
		}
	],

	"symbolMap":{
		"1" : {"vbName":"s_Lioness"},
		"2" : {"vbName":"s_Elephant"},
		"3" : {"vbName":"s_Rhino"},
		"4" : {"vbName":"s_Giraffe"},
		"5" : {"vbName":"s_Zebra"},
		"6" : {"vbName":"s_Ace"},
		"7" : {"vbName":"s_King"},
		"8" : {"vbName":"s_Queen"},
		"9" : {"vbName":"s_Jack"},
		"10" : {"vbName":"s_Africa"},
		"11" : {"vbName":"s_WildLion"}
	}
}
