{
    "anims": [
        { "prop": "x", "val": 0, "time": 0, "ease": "Linear.EaseNone" },
        { "prop": "x", "val": -20, "time": 4, "ease": "Linear.EaseNone" },
        { "prop": "y", "val": 0, "time": 0, "ease": "Linear.EaseNone" }
    ]
}